module github.com/jaimem88/go-user-api

go 1.13

require (
	github.com/go-test/deep v1.0.4
	github.com/gogo/protobuf v1.3.1
	github.com/golang/protobuf v1.3.2
	github.com/grpc-ecosystem/go-grpc-middleware v1.1.0
	github.com/pkg/errors v0.8.1
	github.com/sirupsen/logrus v1.4.2
	github.com/stretchr/testify v1.4.0
	google.golang.org/grpc v1.25.1
)
